<svg width="91" height="55" viewBox="0 0 91 55" fill="none" xmlns="http://www.w3.org/2000/svg">
<path d="M41.2728 53.0392L38.3793 44.3922H19.1584L16.2649 53.0392H6L22.8786 5H34.6591L51.6066 53.0392H41.2728ZM22.1897 35.5392H35.417L28.8033 15.9118L22.1897 35.5392Z" fill="#E7EEF9"/>
<path d="M81.1129 18.7255H90V53.0392H81.1129V48.9902C78.4491 52.3301 74.7059 54 69.8835 54C65.2907 54 61.3409 52.2614 58.034 48.7843C54.7731 45.2614 53.1427 40.9608 53.1427 35.8824C53.1427 30.8039 54.7731 26.5261 58.034 23.049C61.3409 19.5261 65.2907 17.7647 69.8835 17.7647C74.7059 17.7647 78.4491 19.4346 81.1129 22.7745V18.7255ZM64.7166 42.8824C66.5078 44.6667 68.7812 45.5588 71.5369 45.5588C74.2926 45.5588 76.566 44.6667 78.3572 42.8824C80.1943 41.0523 81.1129 38.719 81.1129 35.8824C81.1129 33.0458 80.1943 30.7353 78.3572 28.951C76.566 27.1209 74.2926 26.2059 71.5369 26.2059C68.7812 26.2059 66.5078 27.1209 64.7166 28.951C62.9254 30.7353 62.0298 33.0458 62.0298 35.8824C62.0298 38.719 62.9254 41.0523 64.7166 42.8824Z" fill="#E7EEF9"/>
<path d="M41.2728 53.0392L38.3793 44.3922H19.1584L16.2649 53.0392H6L22.8786 5H34.6591L51.6066 53.0392H41.2728ZM22.1897 35.5392H35.417L28.8033 15.9118L22.1897 35.5392Z" stroke="#E7EEF9"/>
<path d="M81.1129 18.7255H90V53.0392H81.1129V48.9902C78.4491 52.3301 74.7059 54 69.8835 54C65.2907 54 61.3409 52.2614 58.034 48.7843C54.7731 45.2614 53.1427 40.9608 53.1427 35.8824C53.1427 30.8039 54.7731 26.5261 58.034 23.049C61.3409 19.5261 65.2907 17.7647 69.8835 17.7647C74.7059 17.7647 78.4491 19.4346 81.1129 22.7745V18.7255ZM64.7166 42.8824C66.5078 44.6667 68.7812 45.5588 71.5369 45.5588C74.2926 45.5588 76.566 44.6667 78.3572 42.8824C80.1943 41.0523 81.1129 38.719 81.1129 35.8824C81.1129 33.0458 80.1943 30.7353 78.3572 28.951C76.566 27.1209 74.2926 26.2059 71.5369 26.2059C68.7812 26.2059 66.5078 27.1209 64.7166 28.951C62.9254 30.7353 62.0298 33.0458 62.0298 35.8824C62.0298 38.719 62.9254 41.0523 64.7166 42.8824Z" stroke="#E7EEF9"/>
<path d="M37.2728 49.0392L34.3793 40.3922H15.1584L12.2649 49.0392H2L18.8786 1H30.6591L47.6066 49.0392H37.2728ZM18.1897 31.5392H31.417L24.8033 11.9118L18.1897 31.5392Z" stroke="#0B52BB" stroke-width="2"/>
<path d="M77.1129 14.7255H86V49.0392H77.1129V44.9902C74.4491 48.3301 70.7059 50 65.8835 50C61.2907 50 57.3409 48.2614 54.034 44.7843C50.7731 41.2614 49.1427 36.9608 49.1427 31.8824C49.1427 26.8039 50.7731 22.5261 54.034 19.049C57.3409 15.5261 61.2907 13.7647 65.8835 13.7647C70.7059 13.7647 74.4491 15.4346 77.1129 18.7745V14.7255ZM60.7166 38.8824C62.5078 40.6667 64.7812 41.5588 67.5369 41.5588C70.2926 41.5588 72.566 40.6667 74.3572 38.8824C76.1943 37.0523 77.1129 34.719 77.1129 31.8824C77.1129 29.0458 76.1943 26.7353 74.3572 24.951C72.566 23.1209 70.2926 22.2059 67.5369 22.2059C64.7812 22.2059 62.5078 23.1209 60.7166 24.951C58.9254 26.7353 58.0298 29.0458 58.0298 31.8824C58.0298 34.719 58.9254 37.0523 60.7166 38.8824Z" stroke="#0B52BB" stroke-width="2"/>
</svg>
