<svg width="19" height="12" viewBox="0 0 19 12" fill="none" xmlns="http://www.w3.org/2000/svg">
<path opacity="0.2" d="M12 11L17 6M17 6L12 0.999999M17 6L-2.18557e-07 6" stroke="#0B52BB" stroke-width="2"/>
</svg>
